Project 1: Wrangling, Exploration, Visualization
…
# How many IDs are in `stateparties1` that do not appear in
# `hatecrimes1`?
stateparties1 %>% anti_join(hatecrimes1, by = "state")

## # A tibble: 0 x 3
## #  with 3 variables: state <chr>, pvi_party <fct>, pvi_amount <dbl>

# How many IDs do the two datasets have in common?
hatecrimes1 %>% inner_join(stateparties1, by = "state")

## # A tibble: 50 x 15
##    state state_abbrev median_house_inc share_unemp_seas share_pop_metro
##    <chr> <chr>                   <int>            <dbl>           <dbl>
##  1 Alab AL                      42278            0.06             0.64
##  2 Alas AK                      67629            0.064            0.63
##  3 Ariz AZ                      49254            0.063            0.9 
##  4 Arka AR                      44922            0.052            0.69
##  5 Cali CA                      60487            0.059            0.97
##  6 Colo CO                      60940            0.04             0.8 
##  7 Conn CT                      70161            0.052            0.94
##  8 Dela DE                      57522            0.049            0.9 
##  9 Flor FL                      46140            0.052            0.96
## 10 Geor GA                      49555            0.058            0.82
## #  with 40 more rows, and 10 more variables: share_pop_hs <dbl>,
## #   share_non_citizen <dbl>, share_white_poverty <dbl>, gini_index <dbl>,
## #   share_non_white <dbl>, share_vote_trump <dbl>,
## #   hate_crimes_per_100k_splc <dbl>, avg_hatecrimes_per_100k_fbi <dbl>,
## #   pvi_party <fct>, pvi_amount <dbl>
…
Wrangling

# use mutate and str_replace to change 'R' and 'D' values in
# the 'pvi_party' column to the full names of the parties
innerdata <- innerdata %>% mutate(pvi_party = str_replace(pvi_party, 
    "R", "Republican")) %>% mutate(pvi_party = str_replace(pvi_party, 
    "D", "Democratic"))

# create new variable calculating the proportion of hate
# crimes in the week after the Nov 2016 election compared to
# the yearly average of hate crimes per state
innerdata %>% group_by(state) %>% summarize(proportion_electionhc = hate_crimes_per_100k_splc/avg_hatecrimes_per_100k_fbi)

## # A tibble: 50 x 2
##    state       proportion_electionhc
##    <chr>                       <dbl>
##  1 Alabama                    0.0697
##  2 Alaska                     0.0868
##  3 Arizona                    0.0660
##  4 Arkansas                   0.0795
##  5 California                 0.107 
##  6 Colorado                   0.139 
##  7 Connecticut                0.0889
##  8 Delaware                   0.220 
##  9 Florida                    0.269 
## 10 Georgia                    0.292 
## #  with 40 more rows
…
# Which state and its partisan lean is associated with the
# highest average hate crimes per 100k?
innerdata %>% group_by(state, pvi_party) %>% select(avg_hatecrimes_per_100k_fbi) %>% 
    arrange(desc(avg_hatecrimes_per_100k_fbi))

## # A tibble: 50 x 3
## # Groups:   state, pvi_party [50]
##    state         pvi_party  avg_hatecrimes_per_100k_fbi
##    <chr>         <chr>                            <dbl>
##  1 Massachusetts Democratic                        4.80
##  2 North Dakota  Republican                        4.74
##  3 New Jersey    Democratic                        4.41
##  4 Kentucky      Republican                        4.21
##  5 Washington    Democratic                        3.82
##  6 Connecticut   Democratic                        3.77
##  7 Minnesota     Democratic                        3.61
##  8 Arizona       Republican                        3.41
##  9 Oregon        Democratic                        3.39
## 10 South Dakota  Republican                        3.30
## #  with 40 more rows
…
# Which state has the highest pvi amount and what is its
# partisan lean?
innerdata %>% group_by(state, pvi_party) %>% select(pvi_amount) %>% 
    arrange(desc(pvi_amount))

## # A tibble: 50 x 3
## # Groups:   state, pvi_party [50]
##    state         pvi_party  pvi_amount
##    <chr>         <chr>           <dbl>
##  1 Wyoming       Republican         47
##  2 Hawaii        Democratic         36
##  3 Idaho         Republican         35
##  4 Oklahoma      Republican         34
##  5 North Dakota  Republican         33
##  6 South Dakota  Republican         31
##  7 Utah          Republican         31
##  8 West Virginia Republican         30
##  9 Massachusetts Democratic         29
## 10 Tennessee     Republican         28
## #  with 40 more rows
…
